
/////////////////traversal with Factoid///////////////////////

import com.intersourcellc.Factoid
dialect "mvel"

global com.intersourcellc.FeedBack feedback;

rule "rule 1"
no-loop true
when 
   $ff : 
   Factoid(getFact("f_int").value() > "120");
   Factoid(step == 1);   
then 
   // trace: 
   feedback.addTrace("rule 1 fired: " + $ff.getFact("f_int").value().toString());
   // measurable result(s): 
   feedback.setIntResult(120); 
   feedback.setBooleanResult(true);
   // set next step, signal modification: 
   modify($ff){setStep(3)}
end

rule "rule 2"
no-loop true
when 
   $ff :  
   Factoid(getFact("f_boolean").value() == "true");
   Factoid(step == 2);
then 
   feedback.addTrace("rule 2 fired: " + $ff.getFact("f_boolean").value().toString());
   feedback.setBooleanResult(true); 
   modify($ff){setStep(0)}
end

rule "rule 3" 
no-loop true
when 
   $ff : 
   Factoid(getFact("f_double").value() > "75");
   Factoid(step == 3); 
then 
   feedback.addTrace("rule 3 fired: " + $ff.getFact("f_double").value().toString());
   feedback.setDoubleResult(75); 
   modify($ff){setStep(2)}
end


